%YAML 1.1
%TAG !u! tag:unity3d.com,2011:
--- !u!21 &2100000
Material:
  serializedVersion: 8
  m_ObjectHideFlags: 0
  m_CorrespondingSourceObject: {fileID: 0}
  m_PrefabInstance: {fileID: 0}
  m_PrefabAsset: {fileID: 0}
  m_Name: Photo1Mat
  m_Shader: {fileID: 4800000, guid: cc41835fe94338741bb852bf386a8a05, type: 3}
  m_ValidKeywords: []
  m_InvalidKeywords:
  - _CULLATMAXDIST_ON
  - _USEGRASS_ON
  m_LightmapFlags: 4
  m_EnableInstancingVariants: 0
  m_DoubleSidedGI: 0
  m_CustomRenderQueue: -1
  stringTagMap: {}
  disabledShaderPasses: []
  m_SavedProperties:
    serializedVersion: 3
    m_TexEnvs:
    - _AltitudeTexture:
        m_Texture: {fileID: 2800000, guid: 63af7bdaeb05be3499e122f9ed9481c5, type: 3}
        m_Scale: {x: 1, y: 1}
        m_Offset: {x: 0, y: 0}
    - _BumpMap:
        m_Texture: {fileID: 0}
        m_Scale: {x: 1, y: 1}
        m_Offset: {x: 0, y: 0}
    - _DetailAlbedoMap:
        m_Texture: {fileID: 0}
        m_Scale: {x: 1, y: 1}
        m_Offset: {x: 0, y: 0}
    - _DetailMask:
        m_Texture: {fileID: 0}
        m_Scale: {x: 1, y: 1}
        m_Offset: {x: 0, y: 0}
    - _DetailNormalMap:
        m_Texture: {fileID: 0}
        m_Scale: {x: 1, y: 1}
        m_Offset: {x: 0, y: 0}
    - _DirtTexture:
        m_Texture: {fileID: 2800000, guid: 63af7bdaeb05be3499e122f9ed9481c5, type: 3}
        m_Scale: {x: 1, y: 1}
        m_Offset: {x: 0, y: 0}
    - _EmissionMap:
        m_Texture: {fileID: 0}
        m_Scale: {x: 1, y: 1}
        m_Offset: {x: 0, y: 0}
    - _ErosTexture:
        m_Texture: {fileID: 0}
        m_Scale: {x: 1, y: 1}
        m_Offset: {x: 0, y: 0}
    - _GrassTexture:
        m_Texture: {fileID: 2800000, guid: 9bf6c3c098042134486ae66ec312b0a6, type: 3}
        m_Scale: {x: 1, y: 1}
        m_Offset: {x: 0, y: 0}
    - _MainTex:
        m_Texture: {fileID: 2800000, guid: f09eae8c0ea04254b90c5386a034a225, type: 3}
        m_Scale: {x: 1, y: 1}
        m_Offset: {x: 0, y: 0}
    - _MetallicGlossMap:
        m_Texture: {fileID: 0}
        m_Scale: {x: 1, y: 1}
        m_Offset: {x: 0, y: 0}
    - _OcclusionMap:
        m_Texture: {fileID: 0}
        m_Scale: {x: 1, y: 1}
        m_Offset: {x: 0, y: 0}
    - _ParallaxMap:
        m_Texture: {fileID: 0}
        m_Scale: {x: 1, y: 1}
        m_Offset: {x: 0, y: 0}
    - _PathTexture:
        m_Texture: {fileID: 0}
        m_Scale: {x: 1, y: 1}
        m_Offset: {x: 0, y: 0}
    - _PathTextureUsed:
        m_Texture: {fileID: 2800000, guid: 5b569876c4b059d45a67ef9fb9ac8263, type: 3}
        m_Scale: {x: 1, y: 1}
        m_Offset: {x: 0, y: 0}
    - _RoadLineTextureUsed:
        m_Texture: {fileID: 2800000, guid: d5aaab89088412e4eb1ea600eaf9f3ec, type: 3}
        m_Scale: {x: 1, y: 1}
        m_Offset: {x: 0, y: 0}
    - _RoadTexture:
        m_Texture: {fileID: 0}
        m_Scale: {x: 1, y: 1}
        m_Offset: {x: 0, y: 0}
    - _RoadTextureUsed:
        m_Texture: {fileID: 2800000, guid: 72691c7bdaa9457489a7436088e3e136, type: 3}
        m_Scale: {x: 1, y: 1}
        m_Offset: {x: 0, y: 0}
    - _StoneTexture:
        m_Texture: {fileID: 2800000, guid: 9bf6c3c098042134486ae66ec312b0a6, type: 3}
        m_Scale: {x: 1, y: 1}
        m_Offset: {x: 0, y: 0}
    - _UnderWaterTexture:
        m_Texture: {fileID: 0}
        m_Scale: {x: 1, y: 1}
        m_Offset: {x: 0, y: 0}
    - _UnderWaterTextureUsed:
        m_Texture: {fileID: 2800000, guid: 63af7bdaeb05be3499e122f9ed9481c5, type: 3}
        m_Scale: {x: 1, y: 1}
        m_Offset: {x: 0, y: 0}
    - _WindMap:
        m_Texture: {fileID: 2800000, guid: b7d1db85130b49a4895cbb26dcabd4c8, type: 3}
        m_Scale: {x: 0.01, y: 0.01}
        m_Offset: {x: 0, y: 0}
    m_Ints: []
    m_Floats:
    - _AltitudeHeight: 48.6
    - _AltitudeInterpolate: 6.1
    - _AltitudeScale: 0.2
    - _BladeBendAmount: 0.5
    - _BladeHeight: 0.5
    - _BladeHeightOffsetRand: 0.2
    - _BladeWidth: 0.03
    - _BladeWidthOffsetRand: 0.05
    - _BumpScale: 1
    - _CullAtMaxDist: 1
    - _CullAtMaxDistance: 0
    - _Cutoff: 0.5
    - _DetailNormalMapScale: 1
    - _DirtScale: 0.2
    - _DistanceCulling: 100000
    - _DistanceCullingLerp: 50
    - _DstBlend: 0
    - _GlossMapScale: 1
    - _Glossiness: 0
    - _GlossyReflections: 1
    - _GrassScale: 0.2
    - _Interpolate: 0.178
    - _InterpolateDS: 0.076
    - _InterpolateGD: 0.08
    - _InterpolateGR: 0
    - _InterpolateRS: 0
    - _Metallic: 0
    - _MinTessellationUniform: 3
    - _Mode: 0
    - _OcclusionStrength: 1
    - _Parallax: 0.02
    - _PathScale: 0.25
    - _RoadLineScale: 0.24
    - _RoadScale: 0.25
    - _SmoothnessTextureChannel: 0
    - _SpecularHighlights: 1
    - _SrcBlend: 1
    - _StoneScale: 0.2
    - _TessellationUniform: 6
    - _Threshold: 0.484
    - _ThresholdDS: 0
    - _ThresholdGD: 0.341
    - _ThresholdGR: 0.5
    - _ThresholdRS: 0.5
    - _UVSec: 0
    - _UnderWaterScale: 0.25
    - _UseGrass: 1
    - _WaterLevel: -3
    - _WaterLevelInterpolate: 0.5
    - _WindPower: 1
    - _WindPowerX: 0.05
    - _WindPowerY: 0.05
    - _WindScaleX: 0.01
    - _WindScaleZ: 0.01
    - _ZWrite: 1
    m_Colors:
    - _AltitudeColor: {r: 0.7075472, g: 0.7075472, b: 0.7075472, a: 1}
    - _BladeBottomColor: {r: 0.12133297, g: 0.1981132, b: 0.10933606, a: 1}
    - _BladeTopColor: {r: 0.4584038, g: 0.6226415, b: 0.23202206, a: 1}
    - _Color: {r: 1, g: 1, b: 1, a: 1}
    - _DirtColor: {r: 0.6603774, g: 0.45325977, b: 0.2024742, a: 1}
    - _EmissionColor: {r: 0, g: 0, b: 0, a: 1}
    - _GrassColor: {r: 0.23887502, g: 0.6226415, b: 0.14978638, a: 1}
    - _PathColor: {r: 0.6415094, g: 0.3936585, b: 0, a: 1}
    - _RoadLineColor: {r: 0.754717, g: 0.754717, b: 0.754717, a: 1}
    - _RockColor: {r: 0.509434, g: 0.37183365, b: 0.14658241, a: 1}
    - _StoneColor: {r: 0.49056602, g: 0.49056602, b: 0.49056602, a: 1}
    - _WindPower: {r: 0.05, g: 0.05, b: 0, a: 0}
  m_BuildTextureStacks: []
